<?xml version="1.0" encoding="UTF-8"?>
<!DOCTYPE svg PUBLIC "-//W3C//DTD SVG 1.1//EN" "http://www.w3.org/Graphics/SVG/1.1/DTD/svg11.dtd">
<!-- Creator: CorelDRAW X8 -->
<svg xmlns="http://www.w3.org/2000/svg" xml:space="preserve" width="10.66mm" height="15.7mm" version="1.1" style="shape-rendering:geometricPrecision; text-rendering:geometricPrecision; image-rendering:optimizeQuality; fill-rule:evenodd; clip-rule:evenodd"
viewBox="0 0 1066 1570"
 xmlns:xlink="http://www.w3.org/1999/xlink">
 <defs>
  <style type="text/css">
   <![CDATA[
    .fil1 {fill:#22BF56}
    .fil0 {fill:#22BF56;fill-rule:nonzero}
    .fil2 {fill:#F9F6F6;fill-rule:nonzero}
   ]]>
  </style>
 </defs>
 <g id="Layer_x0020_1">
  <metadata id="CorelCorpID_0Corel-Layer"/>
  <g id="_2867561961232">
   <g>
    <path class="fil0" d="M1003 1434c0,40 -33,73 -73,73l-794 0c-40,0 -73,-33 -73,-73l0 -1298c0,-40 33,-73 73,-73l794 0c40,0 73,33 73,73l0 1298zm-73 -1434l-794 0c-75,0 -136,61 -136,136l0 1298c0,75 61,136 136,136l794 0c75,0 136,-61 136,-136l0 -1298c0,-75 -61,-136 -136,-136z"/>
    <path class="fil0" d="M533 96c8,0 15,-7 15,-15 0,-8 -7,-14 -15,-14 -8,0 -15,6 -15,14 0,8 7,15 15,15z"/>
    <path class="fil0" d="M478 155l110 0c8,0 14,-7 14,-15 0,-8 -6,-14 -14,-14l-110 0c-8,0 -14,6 -14,14 0,8 6,15 14,15z"/>
    <path class="fil0" d="M429 152c7,0 12,-6 12,-12 0,-6 -5,-11 -12,-11 -6,0 -11,5 -11,11 0,6 5,12 11,12z"/>
    <path class="fil0" d="M533 1470c-32,0 -57,-26 -57,-58 0,-31 25,-57 57,-57 32,0 57,26 57,57 0,32 -25,58 -57,58zm0 -147c-49,0 -89,40 -89,89 0,49 40,89 89,89 49,0 89,-40 89,-89 0,-49 -40,-89 -89,-89z"/>
    <path class="fil0" d="M890 1290l-714 0 0 -1072 714 0 0 1072zm15 -1104l-744 0c-9,0 -16,7 -16,16l0 1103c0,9 7,16 16,16l744 0c9,0 16,-7 16,-16l0 -1103c0,-9 -7,-16 -16,-16z"/>
   </g>
   <circle class="fil1" cx="533" cy="785" r="319"/>
   <path class="fil2" d="M325 880l35 0 0 -117 51 0 66 117 40 0 -71 -120c38,-10 63,-36 63,-79 0,-57 -41,-77 -97,-77l-87 0 0 276zm35 -145l0 -103 47 0c43,0 67,13 67,49 0,36 -24,54 -67,54l-47 0z"/>
   <path id="1" class="fil2" d="M562 966l34 0 0 -69 -1 -36c19,15 38,24 57,24 47,0 89,-41 89,-110 0,-64 -29,-105 -81,-105 -24,0 -47,13 -66,29l-1 0 -3 -24 -28 0 0 291zm84 -110c-13,0 -31,-6 -50,-22l0 -107c20,-18 38,-28 55,-28 39,0 54,31 54,76 0,50 -25,81 -59,81z"/>
  </g>
 </g>
</svg>
